Lab5/simulation/qsim/StateMachineVHDL.msim.vcd
$comment
	File created using the following command:
		vcd file StateMachineVHDL.msim.vcd -direction
$end
$date
	Fri Feb 18 12:45:41 2022
$end
$version
	ModelSim Version 10.5b
$end
$timescale
	1ps
$end

$scope module statemachinevhdl_vhd_vec_tst $end
$var wire 1 ! b_en $end
$var wire 1 " clk $end
$var wire 1 # cool $end
$var wire 1 $ g_en $end
$var wire 1 % Q [1] $end
$var wire 1 & Q [0] $end
$var wire 1 ' r_en $end
$var wire 1 ( resetn $end
$var wire 1 ) xmas $end

$scope module i1 $end
$var wire 1 * gnd $end
$var wire 1 + vcc $end
$var wire 1 , unknown $end
$var wire 1 - devoe $end
$var wire 1 . devclrn $end
$var wire 1 / devpor $end
$var wire 1 0 ww_devoe $end
$var wire 1 1 ww_devclrn $end
$var wire 1 2 ww_devpor $end
$var wire 1 3 ww_xmas $end
$var wire 1 4 ww_cool $end
$var wire 1 5 ww_resetn $end
$var wire 1 6 ww_clk $end
$var wire 1 7 ww_r_en $end
$var wire 1 8 ww_g_en $end
$var wire 1 9 ww_b_en $end
$var wire 1 : ww_Q [1] $end
$var wire 1 ; ww_Q [0] $end
$var wire 1 < \r_en~output_o\ $end
$var wire 1 = \g_en~output_o\ $end
$var wire 1 > \b_en~output_o\ $end
$var wire 1 ? \Q[0]~output_o\ $end
$var wire 1 @ \Q[1]~output_o\ $end
$var wire 1 A \clk~input_o\ $end
$var wire 1 B \state.Green~0_combout\ $end
$var wire 1 C \resetn~input_o\ $end
$var wire 1 D \state.Green~q\ $end
$var wire 1 E \cool~input_o\ $end
$var wire 1 F \xmas~input_o\ $end
$var wire 1 G \Selector1~0_combout\ $end
$var wire 1 H \state.blue~q\ $end
$var wire 1 I \Selector0~0_combout\ $end
$var wire 1 J \state.Red~q\ $end
$var wire 1 K \ALT_INV_xmas~input_o\ $end
$var wire 1 L \ALT_INV_cool~input_o\ $end
$var wire 1 M \ALT_INV_state.blue~q\ $end
$var wire 1 N \ALT_INV_state.Green~q\ $end
$var wire 1 O \ALT_INV_state.Red~q\ $end
$upscope $end
$upscope $end
$enddefinitions $end
#0
$dumpvars
0!
0"
0#
0$
1'
0(
0)
0*
1+
x,
1-
1.
1/
10
11
12
03
04
05
06
17
08
09
1<
0=
0>
0?
0@
0A
1B
0C
0D
0E
0F
0G
0H
1I
0J
1K
1L
1M
1N
1O
0:
0;
0%
0&
$end
#25000
1"
16
1A
#40000
1(
15
1C
#50000
0"
06
0A
#75000
1"
16
1A
1D
1J
0O
0N
1G
0B
1=
1?
0<
18
1;
07
1$
1&
0'
#100000
0"
06
0A
#125000
1"
16
1A
0D
1H
0M
1N
0G
0I
1>
1@
0=
0?
19
1:
08
0;
1!
0&
1%
0$
#150000
0"
06
0A
#175000
1"
16
1A
0H
0J
1O
1M
1I
1B
0>
0@
1<
09
0:
17
0!
0%
1'
#200000
0"
06
0A
#225000
1"
16
1A
1D
1J
0O
0N
1G
0B
1=
1?
0<
18
1;
07
1$
1&
0'
#250000
0"
06
0A
#275000
1"
16
1A
0D
1H
0M
1N
0G
0I
1>
1@
0=
0?
19
1:
08
0;
1!
0&
1%
0$
#300000
0"
06
0A
#325000
1"
16
1A
0H
0J
1O
1M
1I
1B
0>
0@
1<
09
0:
17
0!
0%
1'
#340000
1#
14
1E
0L
#350000
0"
06
0A
#375000
1"
16
1A
1D
1J
0O
0N
1G
0B
1=
1?
0<
18
1;
07
1$
1&
0'
#400000
0"
06
0A
#425000
1"
16
1A
0D
1H
0M
1N
1>
1@
0=
0?
19
1:
08
0;
1!
0&
1%
0$
#450000
0"
06
0A
#475000
1"
16
1A
#500000
0"
06
0A
#525000
1"
16
1A
#550000
0"
06
0A
#575000
1"
16
1A
#600000
0"
06
0A
#625000
1"
16
1A
#650000
0"
06
0A
#675000
1"
16
1A
#700000
0"
06
0A
#725000
1"
16
1A
#750000
0"
06
0A
#775000
1"
16
1A
#800000
0"
0#
1)
06
04
13
1F
0E
0A
1L
0K
0G
0I
#825000
1"
16
1A
0H
0J
1O
1M
1I
1B
0>
0@
1<
09
0:
17
0!
0%
1'
#850000
0"
06
0A
#875000
1"
16
1A
1D
1J
0O
0N
0I
0B
1=
1?
0<
18
1;
07
1$
1&
0'
#900000
0"
06
0A
#925000
1"
16
1A
0D
0J
1O
1N
1I
1B
0=
0?
1<
08
0;
17
0$
0&
1'
#950000
0"
06
0A
#975000
1"
16
1A
1D
1J
0O
0N
0I
0B
1=
1?
0<
18
1;
07
1$
1&
0'
#1000000
0"
06
0A
#1025000
1"
16
1A
0D
0J
1O
1N
1I
1B
0=
0?
1<
08
0;
17
0$
0&
1'
#1050000
0"
06
0A
#1075000
1"
16
1A
1D
1J
0O
0N
0I
0B
1=
1?
0<
18
1;
07
1$
1&
0'
#1100000
0"
06
0A
#1125000
1"
16
1A
0D
0J
1O
1N
1I
1B
0=
0?
1<
08
0;
17
0$
0&
1'
#1150000
0"
06
0A
#1175000
1"
16
1A
1D
1J
0O
0N
0I
0B
1=
1?
0<
18
1;
07
1$
1&
0'
#1200000
0"
1#
06
14
1E
0A
0L
1G
1I
#1225000
1"
16
1A
0D
1H
0M
1N
1>
1@
0=
0?
19
1:
08
0;
1!
0&
1%
0$
#1250000
0"
06
0A
#1275000
1"
16
1A
#1300000
0"
06
0A
#1325000
1"
16
1A
#1350000
0"
06
0A
#1375000
1"
16
1A
#1400000
0"
06
0A
#1425000
1"
16
1A
#1450000
0"
06
0A
#1475000
1"
16
1A
#1500000
0"
06
0A
#1525000
1"
16
1A
#1550000
0"
06
0A
#1575000
1"
16
1A
