Lab1/DogDaycare/simulation/qsim/DogDaycare.msim.vcd
$comment
	File created using the following command:
		vcd file DogDaycare.msim.vcd -direction
$end
$date
	Tue Jan 18 17:09:24 2022
$end
$version
	ModelSim Version 10.5b
$end
$timescale
	1ps
$end

$scope module DogDaycare_vlg_vec_tst $end
$var reg 1 ! B1 $end
$var reg 1 " B2 $end
$var reg 1 # F1 $end
$var reg 1 $ F2 $end
$var reg 1 % M $end
$var wire 1 & alarm $end
$var wire 1 ' warning $end

$scope module i1 $end
$var wire 1 ( gnd $end
$var wire 1 ) vcc $end
$var wire 1 * unknown $end
$var tri1 1 + devclrn $end
$var tri1 1 , devpor $end
$var tri1 1 - devoe $end
$var wire 1 . alarm~output_o $end
$var wire 1 / warning~output_o $end
$var wire 1 0 F2~input_o $end
$var wire 1 1 B2~input_o $end
$var wire 1 2 B1~input_o $end
$var wire 1 3 M~input_o $end
$var wire 1 4 F1~input_o $end
$var wire 1 5 inst9~0_combout $end
$var wire 1 6 inst12~0_combout $end
$upscope $end
$upscope $end
$enddefinitions $end
#0
$dumpvars
0!
0"
0#
0$
0%
0&
0'
0(
1)
x*
1+
1,
1-
0.
0/
00
01
02
03
04
05
06
$end
#50000
1$
10
#100000
1#
0$
14
00
#150000
1$
10
#200000
1"
0#
0$
11
04
00
#250000
1$
10
15
1.
1&
#300000
1#
0$
14
00
16
05
0.
1/
1'
0&
#350000
1$
10
15
1.
1&
#400000
1!
0"
0#
0$
12
01
04
00
06
05
0.
0/
0'
0&
#450000
1$
10
16
1/
1'
#500000
1#
0$
14
00
06
15
1.
0/
0'
1&
#550000
1$
10
16
1/
1'
#600000
1"
0#
0$
11
04
00
06
05
0.
0/
0'
0&
#650000
1$
10
16
15
1.
1/
1'
1&
#700000
1#
0$
14
00
#750000
1$
10
#800000
1%
0!
0"
0#
0$
13
02
01
04
00
06
05
0.
0/
0'
0&
#850000
1$
10
#900000
1#
0$
14
00
#950000
1$
10
#1000000
1"
0#
0$
11
04
00
#1050000
1$
10
15
1.
1&
#1100000
1#
0$
14
00
#1150000
1$
10
#1200000
1!
0"
0#
0$
12
01
04
00
05
0.
0&
#1250000
1$
10
15
1.
1&
#1300000
1#
0$
14
00
#1350000
1$
10
#1400000
1"
0#
0$
11
04
00
05
0.
0&
#1450000
1$
10
15
1.
1&
#1500000
1#
0$
14
00
#1550000
1$
10
