Lab4/simulation/qsim/MooreStateMachine.msim.vcd
$comment
	File created using the following command:
		vcd file MooreStateMachine.msim.vcd -direction
$end
$date
	Wed Feb 09 18:53:30 2022
$end
$version
	ModelSim Version 10.5b
$end
$timescale
	1ps
$end

$scope module MooreStateMachine_vlg_vec_tst $end
$var reg 1 ! clock $end
$var reg 1 " cool $end
$var reg 1 # resetn $end
$var reg 1 $ xmas $end
$var wire 1 % b_en $end
$var wire 1 & g_en $end
$var wire 1 ' Q [1] $end
$var wire 1 ( Q [0] $end
$var wire 1 ) r_en $end

$scope module i1 $end
$var wire 1 * gnd $end
$var wire 1 + vcc $end
$var wire 1 , unknown $end
$var tri1 1 - devclrn $end
$var tri1 1 . devpor $end
$var tri1 1 / devoe $end
$var wire 1 0 ~QUARTUS_CREATED_GND~I_combout $end
$var wire 1 1 clock~input_o $end
$var wire 1 2 clock~inputCLKENA0_outclk $end
$var wire 1 3 inst7|10~0_combout $end
$var wire 1 4 resetn~input_o $end
$var wire 1 5 inst7|10~q $end
$var wire 1 6 cool~input_o $end
$var wire 1 7 xmas~input_o $end
$var wire 1 8 inst3~0_combout $end
$var wire 1 9 inst7|9~q $end
$var wire 1 : inst5~combout $end
$upscope $end
$upscope $end
$enddefinitions $end
#0
$dumpvars
0!
0"
0#
0$
0%
0&
0(
0'
1)
0*
1+
x,
1-
1.
1/
00
01
02
13
04
05
06
07
08
09
0:
$end
#25000
1!
11
12
#40000
1#
14
#50000
0!
01
02
#75000
1!
11
12
15
1&
1(
1:
18
0)
03
#100000
0!
01
02
#125000
1!
11
12
19
05
0&
0(
1%
1'
08
#150000
0!
01
02
#175000
1!
11
12
09
0%
0'
0:
1)
13
#200000
0!
01
02
#225000
1!
11
12
15
1&
1(
1:
18
0)
03
#250000
0!
01
02
#275000
1!
11
12
19
05
0&
0(
1%
1'
08
#300000
0!
01
02
#325000
1!
11
12
09
0%
0'
0:
1)
13
#340000
1"
16
#350000
0!
01
02
#375000
1!
11
12
15
1&
1(
1:
18
0)
03
#400000
0!
01
02
#425000
1!
11
12
19
05
0&
0(
1%
1'
#450000
0!
01
02
#475000
1!
11
12
#500000
0!
01
02
#525000
1!
11
12
#550000
0!
01
02
#575000
1!
11
12
#600000
0!
01
02
#625000
1!
11
12
#650000
0!
01
02
#675000
1!
11
12
#700000
0!
01
02
#725000
1!
11
12
#750000
0!
01
02
#775000
1!
11
12
#800000
1$
0"
0!
17
06
01
02
08
#825000
1!
11
12
09
0%
0'
0:
1)
13
#850000
0!
01
02
#875000
1!
11
12
15
1&
1(
1:
0)
03
#900000
0!
01
02
#925000
1!
11
12
05
0&
0(
0:
1)
13
#950000
0!
01
02
#975000
1!
11
12
15
1&
1(
1:
0)
03
#1000000
0!
01
02
#1025000
1!
11
12
05
0&
0(
0:
1)
13
#1050000
0!
01
02
#1075000
1!
11
12
15
1&
1(
1:
0)
03
#1100000
0!
01
02
#1125000
1!
11
12
05
0&
0(
0:
1)
13
#1150000
0!
01
02
#1175000
1!
11
12
15
1&
1(
1:
0)
03
#1200000
1"
0!
16
01
02
18
#1225000
1!
11
12
19
05
0&
0(
1%
1'
#1250000
0!
01
02
#1275000
1!
11
12
#1300000
0!
01
02
#1325000
1!
11
12
#1350000
0!
01
02
#1375000
1!
11
12
#1400000
0!
01
02
#1425000
1!
11
12
#1450000
0!
01
02
#1475000
1!
11
12
#1500000
0!
01
02
#1525000
1!
11
12
#1550000
0!
01
02
#1575000
1!
11
12
